<?xml version="1.0" encoding="UTF-8" standalone="no"?>
<svg
   xmlns:dc="http://purl.org/dc/elements/1.1/"
   xmlns:cc="http://creativecommons.org/ns#"
   xmlns:rdf="http://www.w3.org/1999/02/22-rdf-syntax-ns#"
   xmlns:svg="http://www.w3.org/2000/svg"
   xmlns="http://www.w3.org/2000/svg"
   xmlns:sodipodi="http://sodipodi.sourceforge.net/DTD/sodipodi-0.dtd"
   xmlns:inkscape="http://www.inkscape.org/namespaces/inkscape"
   width="66.145836mm"
   height="66.078644mm"
   viewBox="0 0 66.145836 66.078644"
   version="1.1"
   id="svg33266"
   inkscape:version="1.0.1 (3bc2e813f5, 2020-09-07)"
   sodipodi:docname="logo.svg">
  <defs
     id="defs33260" />
  <sodipodi:namedview
     id="base"
     pagecolor="#ffffff"
     bordercolor="#666666"
     borderopacity="1.0"
     inkscape:pageopacity="0.0"
     inkscape:pageshadow="2"
     inkscape:zoom="1.4826594"
     inkscape:cx="216.83666"
     inkscape:cy="216.09552"
     inkscape:document-units="mm"
     inkscape:current-layer="layer1"
     showgrid="false"
     showguides="true"
     inkscape:guide-bbox="true"
     fit-margin-top="0"
     fit-margin-left="0"
     fit-margin-right="0"
     fit-margin-bottom="0"
     inkscape:document-rotation="0"
     inkscape:window-width="2560"
     inkscape:window-height="1355"
     inkscape:window-x="0"
     inkscape:window-y="0"
     inkscape:window-maximized="1">
    <sodipodi:guide
       position="64.454693,27.711101"
       orientation="0,1"
       id="guide33349"
       inkscape:locked="false" />
  </sodipodi:namedview>
  <metadata
     id="metadata33263">
    <rdf:RDF>
      <cc:Work
         rdf:about="">
        <dc:format>image/svg+xml</dc:format>
        <dc:type
           rdf:resource="http://purl.org/dc/dcmitype/StillImage" />
        <dc:title></dc:title>
      </cc:Work>
    </rdf:RDF>
  </metadata>
  <g
     inkscape:label="Calque 1"
     inkscape:groupmode="layer"
     id="layer1"
     transform="translate(-27.05171,-93.927608)">
    <g
       id="g30409"
       transform="matrix(1.4391919,0.00245906,-0.00245906,1.4391919,308.75047,-7.1664876)">
      <g
         transform="matrix(0.87918095,0,0,0.87918095,-40.911317,12.434453)"
         id="g30385">
        <rect
           style="opacity:1;fill:none;fill-opacity:1;fill-rule:nonzero;stroke:#ccccaa;stroke-width:3.89294624;stroke-linecap:butt;stroke-linejoin:bevel;stroke-miterlimit:4;stroke-dasharray:none;stroke-dashoffset:0;stroke-opacity:1;paint-order:markers stroke fill"
           id="rect30310-1"
           width="48.301006"
           height="48.242859"
           x="-173.92935"
           y="68.081581" />
        <rect
           style="opacity:1;fill:#eeee88;fill-opacity:1;fill-rule:nonzero;stroke:#aaaa55;stroke-width:1.75621903;stroke-linecap:butt;stroke-linejoin:bevel;stroke-miterlimit:4;stroke-dasharray:none;stroke-dashoffset:0;stroke-opacity:1;paint-order:markers stroke fill"
           id="rect30310"
           width="49.229862"
           height="49.229862"
           x="-174.99074"
           y="67.010086" />
      </g>
      <g
         transform="translate(-98.735177,20.673278)"
         style="fill:#000000"
         id="g30330" />
    </g>
    <g
       id="g892"
       transform="translate(-3.8920143,1.8276076)">
      <text
         xml:space="preserve"
         style="font-style:normal;font-variant:normal;font-weight:normal;font-stretch:normal;font-size:16.6683px;line-height:1;font-family:LilyUPC;-inkscape-font-specification:'LilyUPC, Normal';font-variant-ligatures:normal;font-variant-caps:normal;font-variant-numeric:normal;font-feature-settings:normal;text-align:start;writing-mode:lr-tb;text-anchor:start;opacity:1;fill:#000000;fill-opacity:1;fill-rule:nonzero;stroke:none;stroke-width:1.31716;stroke-linecap:round;stroke-linejoin:round;stroke-miterlimit:4;stroke-dasharray:none;stroke-dashoffset:0;stroke-opacity:1;paint-order:markers stroke fill"
         x="-91.001099"
         y="63.331829"
         id="text30272"
         transform="matrix(1.4391919,0.00245906,-0.00245906,1.4391919,166.60077,22.343531)"><tspan
           sodipodi:role="line"
           id="tspan30270"
           x="-91.001099"
           y="63.331829"
           style="font-style:normal;font-variant:normal;font-weight:normal;font-stretch:normal;font-size:16.6683px;font-family:'DejaVu Sans';-inkscape-font-specification:'DejaVu Sans';font-variant-ligatures:normal;font-variant-caps:normal;font-variant-numeric:normal;font-feature-settings:normal;text-align:start;writing-mode:lr-tb;text-anchor:start;fill:#000000;fill-opacity:1;stroke-width:1.31716">T</tspan></text>
      <text
         xml:space="preserve"
         style="font-style:normal;font-variant:normal;font-weight:normal;font-stretch:normal;font-size:16.6683px;line-height:1;font-family:LilyUPC;-inkscape-font-specification:'LilyUPC, Normal';font-variant-ligatures:normal;font-variant-caps:normal;font-variant-numeric:normal;font-feature-settings:normal;text-align:start;writing-mode:lr-tb;text-anchor:start;opacity:1;fill:#000000;fill-opacity:1;fill-rule:nonzero;stroke:none;stroke-width:1.31716;stroke-linecap:round;stroke-linejoin:round;stroke-miterlimit:4;stroke-dasharray:none;stroke-dashoffset:0;stroke-opacity:1;paint-order:markers stroke fill"
         x="-77.750885"
         y="63.331829"
         id="text30276"
         transform="matrix(1.4391919,0.00245906,-0.00245906,1.4391919,166.60077,22.343531)"><tspan
           sodipodi:role="line"
           x="-77.750885"
           y="63.331829"
           style="font-style:normal;font-variant:normal;font-weight:normal;font-stretch:normal;font-size:16.6683px;font-family:'DejaVu Sans';-inkscape-font-specification:'DejaVu Sans';font-variant-ligatures:normal;font-variant-caps:normal;font-variant-numeric:normal;font-feature-settings:normal;text-align:start;writing-mode:lr-tb;text-anchor:start;fill:#000000;fill-opacity:1;stroke-width:1.31716"
           id="tspan30278">R</tspan></text>
      <text
         xml:space="preserve"
         style="font-style:normal;font-variant:normal;font-weight:normal;font-stretch:normal;font-size:16.6683px;line-height:1;font-family:LilyUPC;-inkscape-font-specification:'LilyUPC, Normal';font-variant-ligatures:normal;font-variant-caps:normal;font-variant-numeric:normal;font-feature-settings:normal;text-align:start;writing-mode:lr-tb;text-anchor:start;opacity:1;fill:#000000;fill-opacity:1;fill-rule:nonzero;stroke:none;stroke-width:1.31716;stroke-linecap:round;stroke-linejoin:round;stroke-miterlimit:4;stroke-dasharray:none;stroke-dashoffset:0;stroke-opacity:1;paint-order:markers stroke fill"
         x="-61.445587"
         y="63.331829"
         id="text30284"
         transform="matrix(1.4391919,0.00245906,-0.00245906,1.4391919,166.60077,22.343531)"><tspan
           sodipodi:role="line"
           id="tspan30282"
           x="-61.445587"
           y="63.331829"
           style="font-style:normal;font-variant:normal;font-weight:normal;font-stretch:normal;font-size:16.6683px;font-family:'DejaVu Sans';-inkscape-font-specification:'DejaVu Sans';font-variant-ligatures:normal;font-variant-caps:normal;font-variant-numeric:normal;font-feature-settings:normal;text-align:start;writing-mode:lr-tb;text-anchor:start;fill:#000000;fill-opacity:1;stroke-width:1.31716">I</tspan></text>
      <text
         xml:space="preserve"
         style="font-style:normal;font-variant:normal;font-weight:normal;font-stretch:normal;font-size:16.6683px;line-height:1;font-family:LilyUPC;-inkscape-font-specification:'LilyUPC, Normal';font-variant-ligatures:normal;font-variant-caps:normal;font-variant-numeric:normal;font-feature-settings:normal;text-align:start;writing-mode:lr-tb;text-anchor:start;opacity:1;fill:#000000;fill-opacity:1;fill-rule:nonzero;stroke:none;stroke-width:1.31716;stroke-linecap:round;stroke-linejoin:round;stroke-miterlimit:4;stroke-dasharray:none;stroke-dashoffset:0;stroke-opacity:1;paint-order:markers stroke fill"
         x="-91.318954"
         y="77.142586"
         id="text30288"
         transform="matrix(1.4391919,0.00245906,-0.00245906,1.4391919,166.60077,22.343531)"><tspan
           sodipodi:role="line"
           id="tspan30286"
           x="-91.318954"
           y="77.142586"
           style="font-style:normal;font-variant:normal;font-weight:normal;font-stretch:normal;font-size:16.6683px;font-family:'DejaVu Sans';-inkscape-font-specification:'DejaVu Sans';font-variant-ligatures:normal;font-variant-caps:normal;font-variant-numeric:normal;font-feature-settings:normal;text-align:start;writing-mode:lr-tb;text-anchor:start;fill:#000000;fill-opacity:1;stroke-width:1.31716">V</tspan></text>
      <text
         xml:space="preserve"
         style="font-style:normal;font-variant:normal;font-weight:normal;font-stretch:normal;font-size:16.6683px;line-height:1;font-family:LilyUPC;-inkscape-font-specification:'LilyUPC, Normal';font-variant-ligatures:normal;font-variant-caps:normal;font-variant-numeric:normal;font-feature-settings:normal;text-align:start;writing-mode:lr-tb;text-anchor:start;opacity:1;fill:#000000;fill-opacity:1;fill-rule:nonzero;stroke:none;stroke-width:1.31716;stroke-linecap:round;stroke-linejoin:round;stroke-miterlimit:4;stroke-dasharray:none;stroke-dashoffset:0;stroke-opacity:1;paint-order:markers stroke fill"
         x="-77.862938"
         y="77.188324"
         id="text30292"
         transform="matrix(1.4391919,0.00245906,-0.00245906,1.4391919,166.60077,22.343531)"><tspan
           sodipodi:role="line"
           id="tspan30290"
           x="-77.862938"
           y="77.188324"
           style="font-style:normal;font-variant:normal;font-weight:normal;font-stretch:normal;font-size:16.6683px;font-family:'DejaVu Sans';-inkscape-font-specification:'DejaVu Sans';font-variant-ligatures:normal;font-variant-caps:normal;font-variant-numeric:normal;font-feature-settings:normal;text-align:start;writing-mode:lr-tb;text-anchor:start;fill:#000000;fill-opacity:1;stroke-width:1.31716">A</tspan></text>
      <text
         xml:space="preserve"
         style="font-style:normal;font-variant:normal;font-weight:normal;font-stretch:normal;font-size:16.6683px;line-height:1;font-family:LilyUPC;-inkscape-font-specification:'LilyUPC, Normal';font-variant-ligatures:normal;font-variant-caps:normal;font-variant-numeric:normal;font-feature-settings:normal;text-align:start;writing-mode:lr-tb;text-anchor:start;opacity:1;fill:#000000;fill-opacity:1;fill-rule:nonzero;stroke:none;stroke-width:1.31716;stroke-linecap:round;stroke-linejoin:round;stroke-miterlimit:4;stroke-dasharray:none;stroke-dashoffset:0;stroke-opacity:1;paint-order:markers stroke fill"
         x="-63.890118"
         y="77.188324"
         id="text30296"
         transform="matrix(1.4391919,0.00245906,-0.00245906,1.4391919,166.60077,22.343531)"><tspan
           sodipodi:role="line"
           id="tspan30294"
           x="-63.890118"
           y="77.188324"
           style="font-style:normal;font-variant:normal;font-weight:normal;font-stretch:normal;font-size:16.6683px;font-family:'DejaVu Sans';-inkscape-font-specification:'DejaVu Sans';font-variant-ligatures:normal;font-variant-caps:normal;font-variant-numeric:normal;font-feature-settings:normal;text-align:start;writing-mode:lr-tb;text-anchor:start;fill:#000000;fill-opacity:1;stroke-width:1.31716">B</tspan></text>
      <text
         xml:space="preserve"
         style="font-style:normal;font-variant:normal;font-weight:normal;font-stretch:normal;font-size:16.6683px;line-height:1;font-family:LilyUPC;-inkscape-font-specification:'LilyUPC, Normal';font-variant-ligatures:normal;font-variant-caps:normal;font-variant-numeric:normal;font-feature-settings:normal;text-align:start;writing-mode:lr-tb;text-anchor:start;opacity:1;fill:#000000;fill-opacity:1;fill-rule:nonzero;stroke:none;stroke-width:1.31716;stroke-linecap:round;stroke-linejoin:round;stroke-miterlimit:4;stroke-dasharray:none;stroke-dashoffset:0;stroke-opacity:1;paint-order:markers stroke fill"
         x="-91.5522"
         y="91.044815"
         id="text30300"
         transform="matrix(1.4391919,0.00245906,-0.00245906,1.4391919,166.60077,22.343531)"><tspan
           sodipodi:role="line"
           id="tspan30298"
           x="-91.5522"
           y="91.044815"
           style="font-style:normal;font-variant:normal;font-weight:normal;font-stretch:normal;font-size:16.6683px;font-family:'DejaVu Sans';-inkscape-font-specification:'DejaVu Sans';font-variant-ligatures:normal;font-variant-caps:normal;font-variant-numeric:normal;font-feature-settings:normal;text-align:start;writing-mode:lr-tb;text-anchor:start;fill:#000000;fill-opacity:1;stroke-width:1.31716">B</tspan></text>
      <text
         xml:space="preserve"
         style="font-style:normal;font-variant:normal;font-weight:normal;font-stretch:normal;font-size:16.6683px;line-height:1;font-family:LilyUPC;-inkscape-font-specification:'LilyUPC, Normal';font-variant-ligatures:normal;font-variant-caps:normal;font-variant-numeric:normal;font-feature-settings:normal;text-align:start;writing-mode:lr-tb;text-anchor:start;opacity:1;fill:#000000;fill-opacity:1;fill-rule:nonzero;stroke:none;stroke-width:1.31716;stroke-linecap:round;stroke-linejoin:round;stroke-miterlimit:4;stroke-dasharray:none;stroke-dashoffset:0;stroke-opacity:1;paint-order:markers stroke fill"
         x="-77.39415"
         y="91.044815"
         id="text30304"
         transform="matrix(1.4391919,0.00245906,-0.00245906,1.4391919,166.60077,22.343531)"><tspan
           sodipodi:role="line"
           id="tspan30302"
           x="-77.39415"
           y="91.044815"
           style="font-style:normal;font-variant:normal;font-weight:normal;font-stretch:normal;font-size:16.6683px;font-family:'DejaVu Sans';-inkscape-font-specification:'DejaVu Sans';font-variant-ligatures:normal;font-variant-caps:normal;font-variant-numeric:normal;font-feature-settings:normal;text-align:start;writing-mode:lr-tb;text-anchor:start;fill:#000000;fill-opacity:1;stroke-width:1.31716"
           rotate="0 0">L</tspan></text>
      <text
         xml:space="preserve"
         style="font-style:normal;font-variant:normal;font-weight:normal;font-stretch:normal;font-size:16.6683px;line-height:1;font-family:LilyUPC;-inkscape-font-specification:'LilyUPC, Normal';font-variant-ligatures:normal;font-variant-caps:normal;font-variant-numeric:normal;font-feature-settings:normal;text-align:start;writing-mode:lr-tb;text-anchor:start;opacity:1;fill:#000000;fill-opacity:1;fill-rule:nonzero;stroke:none;stroke-width:1.31716;stroke-linecap:round;stroke-linejoin:round;stroke-miterlimit:4;stroke-dasharray:none;stroke-dashoffset:0;stroke-opacity:1;paint-order:markers stroke fill"
         x="-63.451061"
         y="91.044815"
         id="text30308"
         transform="matrix(1.4391919,0.00245906,-0.00245906,1.4391919,166.60077,22.343531)"><tspan
           sodipodi:role="line"
           id="tspan30306"
           x="-63.451061"
           y="91.044815"
           style="font-style:normal;font-variant:normal;font-weight:normal;font-stretch:normal;font-size:16.6683px;font-family:'DejaVu Sans';-inkscape-font-specification:'DejaVu Sans';font-variant-ligatures:normal;font-variant-caps:normal;font-variant-numeric:normal;font-feature-settings:normal;text-align:start;writing-mode:lr-tb;text-anchor:start;fill:#000000;fill-opacity:1;stroke-width:1.31716">E</tspan></text>
      <path
         style="fill:none;stroke:#000000;stroke-width:0.0366029px;stroke-linecap:butt;stroke-linejoin:miter;stroke-opacity:1"
         d="m 91.191608,121.7174 -0.580184,0.38267"
         id="path30411"
         inkscape:connector-curvature="0" />
    </g>
  </g>
</svg>
